Does Allen’s rule still apply to the world’s Birds?
…
extreme_family_finder(correlations_significant,"wing_tail_pc1")

## # A tibble: 1 × 4
##   Family3       Trait            p_value r_value
##   <chr>         <chr>              <dbl>   <dbl>
## 1 Pteroclididae wing_tail_pc1 0.00000467  -0.887
## # A tibble: 1 × 4
##   Family3   Trait         p_value r_value
##   <chr>     <chr>           <dbl>   <dbl>
## 1 Sturnidae wing_tail_pc1  0.0277   0.230

print(arrange(filter(correlations_p_r_values,Trait=="Tail_Length"),r_value))

## # A tibble: 96 × 4
##    Family3          Trait        p_value r_value
##    <chr>            <chr>          <dbl>   <dbl>
##  1 Pteroclididae    Tail_Length 1.12e- 5  -0.871
##  2 Acanthizidae     Tail_Length 3.16e- 6  -0.611
##  3 Remizidae        Tail_Length 2.80e- 2  -0.607
##  4 Fringillidae     Tail_Length 3.19e-12  -0.544
##  5 Glareolidae      Tail_Length 3.07e- 2  -0.524
##  6 Polioptilidae    Tail_Length 1.24e- 1  -0.469
##  7 Melanocharitidae Tail_Length 1.86e- 1  -0.431
##  8 Pipridae         Tail_Length 8.89e- 3  -0.374
##  9 Paradisaeidae    Tail_Length 2.32e- 2  -0.373
## 10 Laridae          Tail_Length 7.46e- 3  -0.370
## # ℹ 86 more rows
…
